Empirical guide to analyzing Wisconsin Election Data - Combining Demographic & Election data
…
Combining Demographic & Election data

Once we have demographic statistics and election statistics for the same geographic level, we can combine them to run various analyses.

Here is a simple example, calculating the relative performance of the Democratic candidate in gubernatorial and presidential election in City of Milwaukee wards. I present the results separately for wards where the majority of adults are Black, non-Hispanic white, Hispanic or Latino, etc.

Retrieve election results

The elections file contains the official election results for each reporting unit in each election year. My analysis is limited to just the City of Milwaukee, where each reporting unit is one ward and wards stayed the same from 2012-2020. Their boundaries then changed to accomodate redistricting in 2022.

See the file election-data/official-wec/CombineFiles.R for a demonstration of how to clean and combine official WEC ward returns.

# A tibble: 1,977 × 6
    ward  year office    total   rep   dem
   <dbl> <dbl> <chr>     <dbl> <dbl> <dbl>
 1     1  2012 president  1489   297  1185
 2     2  2012 president   523    23   500
 3     3  2012 president  1138   229   909
 4     4  2012 president  1868   275  1576
 5     5  2012 president   917   125   789
 6     6  2012 president  1875   462  1395
 7     7  2012 president   679   194   480
 8     8  2012 president  1553   371  1172
 9     9  2012 president   857   126   725
10    10  2012 president  1278   346   926
# … with 1,967 more rows
…
aian = Alaska Native or Pacific Islander (non-Hispanic)

asian = Asian (non-Hispanic)

black = Black or African American (non-Hispanic)

hisp = Hispanic or Latino (any race)

white = white (non-Hispanic)

other = other (non-Hispanic)

two = 2 or more race (non-Hispanic)

# A tibble: 20,718 × 5
    ward  year group     count     pct
   <dbl> <dbl> <chr>     <dbl>   <dbl>
 1     1  2010 vap        2604 100    
 2     1  2010 vap_aian      6   0.230
 3     1  2010 vap_asian   120   4.61 
 4     1  2010 vap_black  1138  43.7  
 5     1  2010 vap_hisp    426  16.4  
 6     1  2010 vap_nhpi      0   0    
 7     1  2010 vap_other     4   0.154
 8     1  2010 vap_two      50   1.92 
 9     1  2010 vap_white   860  33.0  
10     1  2012 vap        2583 100    
# … with 20,708 more rows

calculate ward majority group

I then determine which group, if any, makes up at outright majority of the ward’s voting age population in that year.

# A tibble: 2,302 × 3
    ward  year vap_majority
   <dbl> <dbl> <chr>       
 1     1  2010 no majority 
 2     2  2010 black       
 3     3  2010 black       
 4     4  2010 black       
 5     5  2010 black       
 6     6  2010 no majority 
 7     7  2010 no majority 
 8     8  2010 black       
 9     9  2010 black       
10    10  2010 no majority 
# … with 2,292 more rows

aggregate election results by ward majority group

Then, I merge the ward majority dataframe with the election results dataframe, and aggregate the votes by majority group.

# A tibble: 31 × 9
    year office    vap_majority wards  ward  total   rep    dem dem_pct_2pty
   <dbl> <chr>     <chr>        <int> <dbl>  <dbl> <dbl>  <dbl>        <dbl>
 1  2012 president asian            1   171    230    10    218         95.6
 2  2012 president black          136 12679 123308  7429 115406         94.0
 3  2012 president hisp            44 11056  20122  2861  17117         85.7
 4  2012 president no majority     26  3598  21584  3968  17377         81.4
 5  2012 president white          118 25487 122143 42419  77692         64.7
 6  2014 governor  asian            1   171    110     3    106         97.2
 7  2014 governor  black          138 12541  90805  7211  82923         92.0
 8  2014 governor  hisp            45 11340  11902  2453   9277         79.1
 9  2014 governor  no majority     26  4055  14127  3370  10574         75.8
10  2014 governor  white          115 24884  88390 33619  53455         61.4
# … with 21 more rows
…
