Empirical guide to analyzing Wisconsin Election Data - Reporting Units vs. Wards
…
Identify the individual wards which make up each reporting unit.

Match those wards to the GIS file, keeping the reporting unit name as an additional field.

Group by the reporting unit name, and dissolve the constituent ward polygons into a larger reporting unit polygon.

Here is an example, using Milwaukee County data from the 2020 presidential election.

The official election results look like this.

Show the code

pres20

# A tibble: 476 × 5
   county_fips reporting_unit                  total biden trump
   <chr>       <chr>                           <dbl> <dbl> <dbl>
 1 55079       Village of BAYSIDE Wards 1,3     1049   719   323
 2 55079       Village of BAYSIDE Wards 1S,3S     71    47    24
 3 55079       Village of BAYSIDE Wards 2,4     1253   910   327
 4 55079       Village of BAYSIDE Ward 5         706   508   192
 5 55079       Village of BROWN DEER Wards 1-2  2494  1892   553
 6 55079       Village of BROWN DEER Wards 3-4  2489  1683   771
 7 55079       Village of BROWN DEER Wards 5-6  2480  1750   686
 8 55079       Village of FOX POINT Wards 1-4   2202  1533   641
 9 55079       Village of FOX POINT Wards 5-9   2790  1959   788
10 55079       Village of GREENDALE Wards 1-2   1765   824   916
# … with 466 more rows

The wards look like this

Show the code

ward.shp.2020

# A tibble: 570 × 3
   county_fips ward_name                                                geometry
   <chr>       <chr>                                          <MULTIPOLYGON [°]>
 1 55079       Bayside - V 1    (((-87.90525 43.17631, -87.90575 43.17631, -87.…
 2 55079       Bayside - V 1S   (((-87.90774 43.17631, -87.90808 43.17631, -87.…
 3 55079       Bayside - V 2    (((-87.90501 43.18393, -87.90482 43.18392, -87.…
 4 55079       Bayside - V 3    (((-87.91764 43.1921, -87.91694 43.19213, -87.9…
 5 55079       Bayside - V 3S   (((-87.92205 43.19104, -87.9222 43.19104, -87.9…
 6 55079       Bayside - V 4    (((-87.89894 43.1922, -87.89815 43.19217, -87.8…
 7 55079       Bayside - V 5    (((-87.90113 43.17482, -87.90125 43.1751, -87.9…
 8 55079       Brown Deer - V 1 (((-87.95951 43.18644, -87.95919 43.1862, -87.9…
 9 55079       Brown Deer - V 2 (((-87.98452 43.17997, -87.98452 43.18014, -87.…
10 55079       Brown Deer - V 3 (((-87.99448 43.17787, -87.99448 43.17837, -87.…
# … with 560 more rows

The next step is to extract the individual wards from each reporting unit. First, separate the main elements of the reporting_unit string, like so:

Show the code

reporting.units <- pres20 %>%
  select(reporting_unit) %>%
  separate(reporting_unit, into = c("municipality", "wards"), 
           sep = " Wards | Ward ", remove = F) %>%
  separate(municipality, into = c("ctv", "muni"), sep = " of ") %>%
  mutate(ctv = str_sub(ctv, 1, 1))

reporting.units

# A tibble: 476 × 4
   reporting_unit                  ctv   muni       wards
   <chr>                           <chr> <chr>      <chr>
 1 Village of BAYSIDE Wards 1,3    V     BAYSIDE    1,3  
 2 Village of BAYSIDE Wards 1S,3S  V     BAYSIDE    1S,3S
 3 Village of BAYSIDE Wards 2,4    V     BAYSIDE    2,4  
 4 Village of BAYSIDE Ward 5       V     BAYSIDE    5    
 5 Village of BROWN DEER Wards 1-2 V     BROWN DEER 1-2  
 6 Village of BROWN DEER Wards 3-4 V     BROWN DEER 3-4  
 7 Village of BROWN DEER Wards 5-6 V     BROWN DEER 5-6  
 8 Village of FOX POINT Wards 1-4  V     FOX POINT  1-4  
 9 Village of FOX POINT Wards 5-9  V     FOX POINT  5-9  
10 Village of GREENDALE Wards 1-2  V     GREENDALE  1-2  
# … with 466 more rows
…
reporting.units.2 <- reporting.units %>%
  rowwise() %>%
  mutate(wards = expand_dash(wards)) %>%
  ungroup()
reporting.units.2

# A tibble: 476 × 4
   reporting_unit                  ctv   muni       wards    
   <chr>                           <chr> <chr>      <chr>    
 1 Village of BAYSIDE Wards 1,3    V     BAYSIDE    1,3      
 2 Village of BAYSIDE Wards 1S,3S  V     BAYSIDE    1S,3S    
 3 Village of BAYSIDE Wards 2,4    V     BAYSIDE    2,4      
 4 Village of BAYSIDE Ward 5       V     BAYSIDE    5        
 5 Village of BROWN DEER Wards 1-2 V     BROWN DEER 1,2      
 6 Village of BROWN DEER Wards 3-4 V     BROWN DEER 3,4      
 7 Village of BROWN DEER Wards 5-6 V     BROWN DEER 5,6      
 8 Village of FOX POINT Wards 1-4  V     FOX POINT  1,2,3,4  
 9 Village of FOX POINT Wards 5-9  V     FOX POINT  5,6,7,8,9
10 Village of GREENDALE Wards 1-2  V     GREENDALE  1,2      
# … with 466 more rows
Next, convert this table to long format, so that each row represents a single ward within a reporting unit. I also create a ward_name variable which matches the format used by the ward_name variable in the GIS file.

Show the code

wards.in.reporting.units <- reporting.units.2 %>%
  separate(col = wards, into = c("w1","w2","w3","w4","w5"), sep = ",", fill = "right") %>%
  pivot_longer(cols = starts_with("w"), names_to = "wardcount", values_to = "ward") %>%
  filter(!is.na(ward)) %>%
  select(-wardcount) %>%
  mutate(ward_name = paste(str_to_title(muni), "-", ctv, ward))
# nrow(ward.shp.2020) == nrow(wards.in.reporting.units)
# table(ward.shp.2020$ward_name %in% wards.in.reporting.units$ward_name)
wards.in.reporting.units

# A tibble: 570 × 5
   reporting_unit                  ctv   muni       ward  ward_name       
   <chr>                           <chr> <chr>      <chr> <chr>           
 1 Village of BAYSIDE Wards 1,3    V     BAYSIDE    1     Bayside - V 1   
 2 Village of BAYSIDE Wards 1,3    V     BAYSIDE    3     Bayside - V 3   
 3 Village of BAYSIDE Wards 1S,3S  V     BAYSIDE    1S    Bayside - V 1S  
 4 Village of BAYSIDE Wards 1S,3S  V     BAYSIDE    3S    Bayside - V 3S  
 5 Village of BAYSIDE Wards 2,4    V     BAYSIDE    2     Bayside - V 2   
 6 Village of BAYSIDE Wards 2,4    V     BAYSIDE    4     Bayside - V 4   
 7 Village of BAYSIDE Ward 5       V     BAYSIDE    5     Bayside - V 5   
 8 Village of BROWN DEER Wards 1-2 V     BROWN DEER 1     Brown Deer - V 1
 9 Village of BROWN DEER Wards 1-2 V     BROWN DEER 2     Brown Deer - V 2
10 Village of BROWN DEER Wards 3-4 V     BROWN DEER 3     Brown Deer - V 3
# … with 560 more rows
…
Show the code

reporting.unit.shp.2020 <- ward.shp.2020 %>%
  inner_join(wards.in.reporting.units) %>%
  group_by(reporting_unit) %>%
  summarise(geometry = st_union(geometry))

Joining with `by = join_by(ward_name)`

Show the code

reporting.unit.shp.2020

# A tibble: 476 × 2
   reporting_unit                                                       geometry
   <chr>                                                           <POLYGON [°]>
 1 City of CUDAHY Wards 1-3   ((-87.85958 42.95913, -87.8581 42.95914, -87.8576…
 2 City of CUDAHY Wards 10-12 ((-87.86847 42.93365, -87.86806 42.93366, -87.867…
 3 City of CUDAHY Wards 13-15 ((-87.86349 42.93008, -87.86341 42.93008, -87.863…
 4 City of CUDAHY Wards 4-6   ((-87.84925 42.95104, -87.84816 42.95105, -87.846…
 5 City of CUDAHY Wards 7-9   ((-87.86534 42.94457, -87.86506 42.94457, -87.864…
 6 City of FRANKLIN Ward 1    ((-88.00984 42.88712, -88.00985 42.88687, -88.009…
 7 City of FRANKLIN Ward 10   ((-87.96153 42.92292, -87.96181 42.92299, -87.962…
 8 City of FRANKLIN Ward 11   ((-87.96004 42.91043, -87.96001 42.9113, -87.96 4…
 9 City of FRANKLIN Ward 12   ((-87.95063 42.89454, -87.95058 42.89598, -87.950…
10 City of FRANKLIN Ward 13   ((-87.99709 42.90148, -87.99776 42.90148, -87.997…
# … with 466 more rows
…
